singular	plural	isHonorific
Cred că {pronoun_n} este de treabă.	Cred că {pronoun_n} sunt de treabă.	FALSE
{'first_article} întrebat{second_article} pe {pronoun_n} dacă îi pot împrumuta creionul său.	{'first_article}am întrebat pe {pronoun_n} dacă le pot împrumuta creionul lor.	FALSE
{'pronoun_n} mi-a spus că această casă este a {pronoun_dg}.	{'pronoun_n} mi-au spus că această casă este a {pronoun_dg}.	FALSE
{'pronoun_n} {strengthening} și-a dorit să devină erou.	{'pronoun_n} {strengthening} și-au dorit să devină eroi.	FALSE
